fifo_bsp.vcd
$date
     Sep 14, 2018       13:47:14
$end

$version
 SystemC 2.3.2-Accellera --- Jan 28 2018 13:05:04
$end

$timescale
     1 ps
$end

$scope module SystemC $end
$var wire   32  aaaaa  prod_data [31:0]  $end
$var wire   32  aaaab  cons_data [31:0]  $end
$var wire    1  aaaac  data_ok       $end
$var wire    1  aaaad  ready       $end
$var wire    1  aaaae  full       $end
$var wire    1  aaaaf  empty       $end
$upscope $end
$enddefinitions  $end

$comment
All initial values are dumped below at time 0 sec = 0 timescale units.
$end

$dumpvars
b0 aaaaa
b0 aaaab
0aaaac
0aaaad
0aaaae
1aaaaf
$end

#2000
b100011100011100001111100101001 aaaaa
1aaaac
0aaaaf

#3000
b100011100011100001111100101001 aaaab
0aaaac
1aaaad
1aaaaf

#4000
0aaaad

#5000
b101110101100010100000111110010 aaaaa
1aaaac
0aaaaf

#6000
b101110101100010100000111110010 aaaab
0aaaac
1aaaad
1aaaaf

#7000
b1110101010001011110000101000110 aaaaa
1aaaac
0aaaad
0aaaaf

#8000
b1110101010001011110000101000110 aaaab
0aaaac
1aaaad
1aaaaf

#9000
b10010001000000000100001010100 aaaaa
1aaaac
0aaaad
0aaaaf

#10000
b10010001000000000100001010100 aaaab
0aaaac
1aaaad
1aaaaf

#11000
0aaaad

#14000
b10100000011100000111101110110 aaaaa
1aaaac
0aaaaf

#15000
0aaaac

#17000
b11011111011111101011110011111 aaaaa
b10100000011100000111101110110 aaaab
1aaaac
1aaaad

#18000
0aaaac
0aaaad

#19000
b1001110011010101111101101100110 aaaaa
1aaaac

#20000
b11011111011111101011110011111 aaaab
0aaaac
1aaaad

#21000
b111111001011011011101000110001 aaaaa
1aaaac
0aaaad

#22000
b1001110011010101111101101100110 aaaab
0aaaac
1aaaad

#23000
0aaaad

#24000
b1000011011011000110000100100101 aaaaa
b111111001011011011101000110001 aaaab
1aaaac
1aaaad

#25000
0aaaac
0aaaad

#26000
b1000011011011000110000100100101 aaaab
1aaaad
1aaaaf

#27000
0aaaad

#29000
b1110101101000101010100011010100 aaaaa
1aaaac
0aaaaf

#30000
0aaaac

#31000
b1000011010100111101000011001101 aaaaa
1aaaac

#32000
0aaaac

#33000
b1110001111100110010010001010100 aaaaa
1aaaac

#34000
0aaaac

#37000
b1110011011110111000110111011100 aaaaa
b1110101101000101010100011010100 aaaab
1aaaac
1aaaad

#38000
0aaaac
0aaaad

#39000
b1000011010100111101000011001101 aaaab
1aaaad

#40000
0aaaad

#41000
b1000001100110101100001001000001 aaaaa
b1110001111100110010010001010100 aaaab
1aaaac
1aaaad

#42000
0aaaac
0aaaad

#43000
b101000001110010001101100111 aaaaa
1aaaac

#44000
b1110011011110111000110111011100 aaaab
0aaaac
1aaaad

#45000
b1011100010010000010101010010111 aaaaa
1aaaac
0aaaad

#46000
0aaaac

#47000
b1010001111010101101001101101011 aaaaa
1aaaac

#48000
b1000001100110101100001001000001 aaaab
0aaaac
1aaaad

#49000
0aaaad

#50000
b101000001110010001101100111 aaaab
1aaaad

#51000
b101010010010000111110010110000 aaaaa
1aaaac
0aaaad

#52000
0aaaac

#53000
b101100110110001001101000110010 aaaaa
b1011100010010000010101010010111 aaaab
1aaaac
1aaaad

#54000
0aaaac
0aaaad

#55000
b1001011010110001000111101010100 aaaaa
b1010001111010101101001101101011 aaaab
1aaaac
1aaaad

#56000
0aaaac
0aaaad

#57000
b111000010000110111111111011011 aaaaa
b101010010010000111110010110000 aaaab
1aaaac
1aaaad

#58000
0aaaac
0aaaad

#59000
b101100110110001001101000110010 aaaab
1aaaad

#60000
b1110100100110101011101101000011 aaaaa
1aaaac
0aaaad

#61000
0aaaac

#62000
b1001011010110001000111101010100 aaaab
1aaaad

#63000
b10010111001101000010111111011 aaaaa
1aaaac
0aaaad

#64000
b111000010000110111111111011011 aaaab
0aaaac
1aaaad

#65000
b110111010010100011111111100110 aaaaa
1aaaac
0aaaad

#66000
b1110100100110101011101101000011 aaaab
0aaaac
1aaaad

#67000
0aaaad

#68000
b100111010110101100011110010100 aaaaa
1aaaac

#69000
0aaaac

#71000
b110101010011111110100111111001 aaaaa
1aaaac

#72000
b10010111001101000010111111011 aaaab
0aaaac
1aaaad

#73000
0aaaad

#75000
b1111110000011000101011110110001 aaaaa
b110111010010100011111111100110 aaaab
1aaaac
1aaaad

#76000
0aaaac
0aaaad

#77000
b110001000011000101000010110011 aaaaa
b100111010110101100011110010100 aaaab
1aaaac
1aaaad

#78000
0aaaac
0aaaad

#80000
b110101010011111110100111111001 aaaab
1aaaad

#81000
0aaaad

#82000
b1111110000011000101011110110001 aaaab
1aaaad

#83000
0aaaad

#84000
b10101000000010100101011001011 aaaaa
b110001000011000101000010110011 aaaab
1aaaac
1aaaad

#85000
0aaaac
0aaaad

#86000
b10101000000010100101011001011 aaaab
1aaaad
1aaaaf

#87000
0aaaad

#88000
b10110100011100001001000011111 aaaaa
1aaaac
0aaaaf

#89000
0aaaac

#90000
b1011101110001111001111010101000 aaaaa
b10110100011100001001000011111 aaaab
1aaaac
1aaaad

#91000
0aaaac
0aaaad

#92000
b1010001110110011100010101100100 aaaaa
b1011101110001111001111010101000 aaaab
1aaaac
1aaaad

#93000
0aaaac
0aaaad

#95000
b1010000000111000001011000101 aaaaa
1aaaac

#96000
0aaaac

#97000
b1010001110110011100010101100100 aaaab
1aaaad

#98000
b1100000101101101101111101110000 aaaaa
1aaaac
0aaaad

#99000
0aaaac

#100000
b1010000000111000001011000101 aaaab
1aaaad

#101000
0aaaad

#102000
b10000000011110101100111011100 aaaaa
b1100000101101101101111101110000 aaaab
1aaaac
1aaaad

#103000
0aaaac
0aaaad

#104000
b10000000011110101100111011100 aaaab
1aaaad
1aaaaf

#105000
0aaaad

#107000
b1001100000001001010100010101111 aaaaa
1aaaac
0aaaaf

#108000
0aaaac

#110000
b1101000111010111100010101010000 aaaaa
1aaaac

#111000
b1001100000001001010100010101111 aaaab
0aaaac
1aaaad

#112000
b111001111011100000000101011100 aaaaa
1aaaac
0aaaad

#113000
b1101000111010111100010101010000 aaaab
0aaaac
1aaaad

#114000
0aaaad

#115000
b1100000111011110000000100011001 aaaaa
1aaaac

#116000
b111001111011100000000101011100 aaaab
0aaaac
1aaaad

#117000
b1110000010101011010010111110101 aaaaa
1aaaac
0aaaad

#118000
b1100000111011110000000100011001 aaaab
0aaaac
1aaaad

#119000
b100100010001010110000011010 aaaaa
1aaaac
0aaaad

#120000
b1110000010101011010010111110101 aaaab
0aaaac
1aaaad

#121000
b1110110011100101011110100100011 aaaaa
1aaaac
0aaaad

#122000
b100100010001010110000011010 aaaab
0aaaac
1aaaad

#123000
b1111101010111100001100011111000 aaaaa
1aaaac
0aaaad

#124000
b1110110011100101011110100100011 aaaab
0aaaac
1aaaad

#125000
b1111101111001100111011100010011 aaaaa
1aaaac
0aaaad

#126000
b1111101010111100001100011111000 aaaab
0aaaac
1aaaad

#127000
0aaaad

#128000
b1111101111001100111011100010011 aaaab
1aaaad
1aaaaf

#129000
b1001110110101111011000110010 aaaaa
1aaaac
0aaaad
0aaaaf

#130000
b1001110110101111011000110010 aaaab
0aaaac
1aaaad
1aaaaf

#131000
0aaaad

#132000
b11101010101000101110001001101 aaaaa
1aaaac
0aaaaf

#133000
b11101010101000101110001001101 aaaab
0aaaac
1aaaad
1aaaaf

#134000
0aaaad

#138000
b11100101000001100010111111010 aaaaa
1aaaac
0aaaaf

#139000
b11100101000001100010111111010 aaaab
0aaaac
1aaaad
1aaaaf

#140000
b1111100010110001111110100000101 aaaaa
1aaaac
0aaaad
0aaaaf

#141000
0aaaac

#142000
b1011100000100001111111000100001 aaaaa
1aaaac

#143000
0aaaac

#144000
b1111000110111110110101001010101 aaaaa
1aaaac

#145000
0aaaac

#146000
b110111100111100010000110110101 aaaaa
1aaaac

#147000
0aaaac

#148000
b1101010101001111011011101011100 aaaaa
1aaaac

#149000
b1111100010110001111110100000101 aaaab
0aaaac
1aaaad

#150000
0aaaad

#152000
b10111010111011111110011110000 aaaaa
b1011100000100001111111000100001 aaaab
1aaaac
1aaaad

#153000
0aaaac
0aaaad

#155000
b1010110010000111000110100010101 aaaaa
b1111000110111110110101001010101 aaaab
1aaaac
1aaaad

#156000
0aaaac
0aaaad

#158000
b1010000010001101011010110101001 aaaaa
b110111100111100010000110110101 aaaab
1aaaac
1aaaad

#159000
0aaaac
0aaaad

#160000
b1101010101001111011011101011100 aaaab
1aaaad

#161000
0aaaad

#162000
b1010111101001100001101000101001 aaaaa
b10111010111011111110011110000 aaaab
1aaaac
1aaaad

#163000
0aaaac
0aaaad

#164000
b1010110010000111000110100010101 aaaab
1aaaad

#165000
0aaaad

#166000
b1010000010001101011010110101001 aaaab
1aaaad

#167000
b1011111111111010111000011000 aaaaa
1aaaac
0aaaad

#168000
0aaaac

#169000
b1010111101001100001101000101001 aaaab
1aaaad

#170000
b1010101010100011011100111110011 aaaaa
1aaaac
0aaaad

#171000
0aaaac

#172000
b100100111010011001110111010111 aaaaa
1aaaac

#173000
0aaaac

#174000
b11101010100001101000010 aaaaa
b1011111111111010111000011000 aaaab
1aaaac
1aaaad

#175000
0aaaac
0aaaad

#177000
b1010101010100011011100111110011 aaaab
1aaaad

#178000
b1100001111001110100111010100011 aaaaa
1aaaac
0aaaad

#179000
b100100111010011001110111010111 aaaab
0aaaac
1aaaad

#180000
0aaaad

#181000
b110001001000010110011110101101 aaaaa
b11101010100001101000010 aaaab
1aaaac
1aaaad

#182000
0aaaac
0aaaad

#183000
b1110101010010000110111001000111 aaaaa
b1100001111001110100111010100011 aaaab
1aaaac
1aaaad

#184000
0aaaac
0aaaad

#185000
b110001001000010110011110101101 aaaab
1aaaad

#186000
b100110000011011000110001001010 aaaaa
1aaaac
0aaaad

#187000
b1110101010010000110111001000111 aaaab
0aaaac
1aaaad

#188000
b1101111110111101000101011110110 aaaaa
1aaaac
0aaaad

#189000
0aaaac

#190000
b10100110101010011011010000101 aaaaa
1aaaac

#191000
b100110000011011000110001001010 aaaab
0aaaac
1aaaad

#192000
0aaaad

#193000
b1101111110111101000101011110110 aaaab
1aaaad

#194000
0aaaad

#196000
b1011101001000000101111000100000 aaaaa
1aaaac

#197000
b10100110101010011011010000101 aaaab
0aaaac
1aaaad

#198000
0aaaad

#199000
b1011100101101000100101000000101 aaaaa
1aaaac

#200000
0aaaac

#203000
b1011101001000000101111000100000 aaaab
1aaaad

#204000
b1001111101000001101001011100011 aaaaa
1aaaac
0aaaad

#205000
b1011100101101000100101000000101 aaaab
0aaaac
1aaaad

#206000
b111111011111110101110111011001 aaaaa
1aaaac
0aaaad

#207000
0aaaac

#208000
b1001111101000001101001011100011 aaaab
1aaaad

#209000
b100001001000111101010111110010 aaaaa
1aaaac
0aaaad

#210000
0aaaac

#212000
b101110100010100110001110010100 aaaaa
1aaaac

#213000
0aaaac

#215000
b1001010101100100110111001111000 aaaaa
1aaaac

#216000
b111111011111110101110111011001 aaaab
0aaaac
1aaaad

#217000
b111110011001000000000011100110 aaaaa
1aaaac
0aaaad

#218000
0aaaac

#219000
b1010000000101011100110100011010 aaaaa
b100001001000111101010111110010 aaaab
1aaaac
1aaaad

#220000
0aaaac
0aaaad

#221000
b101110100010100110001110010100 aaaab
1aaaad

#222000
0aaaad

#223000
b110010011110110101000101111110 aaaaa
1aaaac

#224000
0aaaac

#225000
b1010001101111110110101101001000 aaaaa
b1001010101100100110111001111000 aaaab
1aaaac
1aaaad

#226000
0aaaac
0aaaad

#227000
b111110011001000000000011100110 aaaab
1aaaad

#228000
0aaaad

#230000
b1100011000111110001011010010000 aaaaa
1aaaac

#231000
0aaaac

#232000
b1011100010010011110101011101110 aaaaa
1aaaac

#233000
0aaaac

#234000
b1011010100111001100001111100101 aaaaa
1aaaac

#235000
0aaaac

#236000
b1100000001011000110111110101 aaaaa
1aaaac

#237000
0aaaac

#238000
b1010000000101011100110100011010 aaaab
1aaaad

#239000
b10000110110111001110110101010 aaaaa
1aaaac
0aaaad

#240000
0aaaac

#242000
b1011000100101011111010111111010 aaaaa
1aaaac

#243000
0aaaac

#244000
b1001010000100001011010011101000 aaaaa
b110010011110110101000101111110 aaaab
1aaaac
1aaaad

#245000
0aaaac
0aaaad

#246000
b101110010100110100101010000010 aaaaa
1aaaac

#247000
b1010001101111110110101101001000 aaaab
0aaaac
1aaaad

#248000
0aaaad

#249000
b1100011000111110001011010010000 aaaab
1aaaad

#250000
b1001111001110001111001001100101 aaaaa
1aaaac
0aaaad

#251000
b1011100010010011110101011101110 aaaab
0aaaac
1aaaad

#252000
0aaaad

#253000
b1000111110001011011100111111 aaaaa
1aaaac

#254000
b1011010100111001100001111100101 aaaab
0aaaac
1aaaad

#255000
0aaaad

#257000
b100101001110011101111110100101 aaaaa
1aaaac

#258000
b1100000001011000110111110101 aaaab
0aaaac
1aaaad

#259000
0aaaad

#260000
b1010100010111101110010111010011 aaaaa
1aaaac

#261000
0aaaac

#262000
b1010000000111111001011110000110 aaaaa
b10000110110111001110110101010 aaaab
1aaaac
1aaaad

#263000
0aaaac
0aaaad

#265000
b1011000100101011111010111111010 aaaab
1aaaad

#266000
0aaaad

#267000
b1100100001000010010101110001100 aaaaa
b1001010000100001011010011101000 aaaab
1aaaac
1aaaad

#268000
0aaaac
0aaaad

#272000
b10011110011011111110011111100 aaaaa
b101110010100110100101010000010 aaaab
1aaaac
1aaaad

#273000
0aaaac
0aaaad

#276000
b100001010101100100000110101111 aaaaa
b1001111001110001111001001100101 aaaab
1aaaac
1aaaad

#277000
0aaaac
0aaaad

#278000
b1110101101101010010011110000011 aaaaa
b1000111110001011011100111111 aaaab
1aaaac
1aaaad

#279000
0aaaac
0aaaad

#280000
b1011001010100110001011100101111 aaaaa
1aaaac

#281000
b100101001110011101111110100101 aaaab
0aaaac
1aaaad

#282000
0aaaad

#283000
b1101100000001010011101100010110 aaaaa
b1010100010111101110010111010011 aaaab
1aaaac
1aaaad

#284000
0aaaac
0aaaad

#285000
b1000010010111101011001000000111 aaaaa
1aaaac

#286000
0aaaac

#287000
b1100110101001001000110100010001 aaaaa
b1010000000111111001011110000110 aaaab
1aaaac
1aaaad

#288000
0aaaac
0aaaad

#290000
b1100100001000010010101110001100 aaaab
1aaaad

#291000
0aaaad

#292000
b1011001101000110111011110110110 aaaaa
b10011110011011111110011111100 aaaab
1aaaac
1aaaad

#293000
0aaaac
0aaaad

#296000
b1101101110001000101111010000011 aaaaa
1aaaac

#297000
0aaaac

#298000
b1110000100000110110000110010110 aaaaa
b100001010101100100000110101111 aaaab
1aaaac
1aaaad

#299000
0aaaac
0aaaad

#300000
b1110101101101010010011110000011 aaaab
1aaaad

#301000
0aaaad

#302000
b1011001010100110001011100101111 aaaab
1aaaad

#303000
b1010110011110111101010100001010 aaaaa
1aaaac
0aaaad

#304000
b1101100000001010011101100010110 aaaab
0aaaac
1aaaad

#305000
0aaaad

#306000
b1000010010111101011001000000111 aaaab
1aaaad

#307000
b1000110000100010001101110100101 aaaaa
1aaaac
0aaaad

#308000
b1100110101001001000110100010001 aaaab
0aaaac
1aaaad

#309000
b11101110101101101011011110100 aaaaa
1aaaac
0aaaad

#310000
b1011001101000110111011110110110 aaaab
0aaaac
1aaaad

#311000
b1110111011110100100111010101010 aaaaa
1aaaac
0aaaad

#312000
0aaaac

#313000
b1111000001101010110001001101100 aaaaa
b1101101110001000101111010000011 aaaab
1aaaac
1aaaad

#314000
0aaaac
0aaaad

#315000
b1001100000110000111110010010000 aaaaa
b1110000100000110110000110010110 aaaab
1aaaac
1aaaad

#316000
0aaaac
0aaaad

#317000
b1110111110010011111110101101000 aaaaa
1aaaac

#318000
b1010110011110111101010100001010 aaaab
0aaaac
1aaaad

#319000
b1010001101000100111101010100110 aaaaa
1aaaac
0aaaad

#320000
b1000110000100010001101110100101 aaaab
0aaaac
1aaaad

#321000
b1100101101111111001110110101000 aaaaa
1aaaac
0aaaad

#322000
0aaaac

#323000
b111100001110110111001010110010 aaaaa
1aaaac

#324000
b11101110101101101011011110100 aaaab
0aaaac
1aaaad

#325000
b1101111101111110010100111001011 aaaaa
1aaaac
0aaaad

#326000
b1110111011110100100111010101010 aaaab
0aaaac
1aaaad

#327000
0aaaad

#328000
b1001100011001110010111111001001 aaaaa
b1111000001101010110001001101100 aaaab
1aaaac
1aaaad

#329000
0aaaac
0aaaad

#330000
b10010111111001101111001011110 aaaaa
b1001100000110000111110010010000 aaaab
1aaaac
1aaaad

#331000
0aaaac
0aaaad

#332000
b1110111110010011111110101101000 aaaab
1aaaad

#333000
b1101010100100101110111101001100 aaaaa
1aaaac
0aaaad

#334000
b1010001101000100111101010100110 aaaab
0aaaac
1aaaad

#335000
0aaaad

#336000
b1100101101111111001110110101000 aaaab
1aaaad

#337000
0aaaad

#338000
b110001001111000111110010011001 aaaaa
b111100001110110111001010110010 aaaab
1aaaac
1aaaad

#339000
0aaaac
0aaaad

#343000
b1001001011011111011001000011000 aaaaa
b1101111101111110010100111001011 aaaab
1aaaac
1aaaad

#344000
0aaaac
0aaaad

#345000
b111001001011101101101111100100 aaaaa
1aaaac

#346000
b1001100011001110010111111001001 aaaab
0aaaac
1aaaad

#347000
0aaaad

#348000
b10010111111001101111001011110 aaaab
1aaaad

#349000
b11100011111100011110000000001 aaaaa
1aaaac
0aaaad

#350000
0aaaac

#351000
b1110110001101011010101000101010 aaaaa
b1101010100100101110111101001100 aaaab
1aaaac
1aaaad

#352000
0aaaac
0aaaad

#354000
b1111001111100001101011000101111 aaaaa
b110001001111000111110010011001 aaaab
1aaaac
1aaaad

#355000
0aaaac
0aaaad

#356000
b1100010001011011000000100000010 aaaaa
1aaaac

#357000
b1001001011011111011001000011000 aaaab
0aaaac
1aaaad

#358000
0aaaad

#359000
b111001001011101101101111100100 aaaab
1aaaad

#360000
0aaaad

#361000
b1111011110011111011101011111100 aaaaa
1aaaac

#362000
0aaaac

#363000
b1100010000110101111010001110001 aaaaa
b11100011111100011110000000001 aaaab
1aaaac
1aaaad

#364000
0aaaac
0aaaad

#365000
b1110110001101011010101000101010 aaaab
1aaaad

#366000
b101010011110011110110001001001 aaaaa
1aaaac
0aaaad

#367000
0aaaac

#368000
b1000110111110000010100001001011 aaaaa
b1111001111100001101011000101111 aaaab
1aaaac
1aaaad

#369000
0aaaac
0aaaad

#371000
b1100010001011011000000100000010 aaaab
1aaaad

#372000
b11010111101111111000011101010 aaaaa
1aaaac
0aaaad

#373000
b1111011110011111011101011111100 aaaab
0aaaac
1aaaad

#374000
b1110000011010011000111111111 aaaaa
1aaaac
0aaaad

#375000
0aaaac

#376000
b1100010000110101111010001110001 aaaab
1aaaad

#377000
b1010110100110010101000111111110 aaaaa
1aaaac
0aaaad

#378000
b101010011110011110110001001001 aaaab
0aaaac
1aaaad

#379000
0aaaad

#380000
b1001000001001001001110110111111 aaaaa
1aaaac

#381000
0aaaac

#383000
b1001100111110111000110100110010 aaaaa
b1000110111110000010100001001011 aaaab
1aaaac
1aaaad

#384000
0aaaac
0aaaad

#385000
b1110111011101010111100101111100 aaaaa
1aaaac

#386000
0aaaac

#387000
b11010111101111111000011101010 aaaab
1aaaad

#388000
b1111011100110110111010000111100 aaaaa
1aaaac
0aaaad

#389000
0aaaac

#390000
b1110000011010011000111111111 aaaab
1aaaad

#391000
0aaaad

#392000
b1011111101100101001100000010110 aaaaa
1aaaac

#393000
0aaaac

#394000
b1111101010000101111101001101 aaaaa
b1010110100110010101000111111110 aaaab
1aaaac
1aaaad

#395000
0aaaac
0aaaad

#396000
b1011011111111010100001000010000 aaaaa
b1001000001001001001110110111111 aaaab
1aaaac
1aaaad

#397000
0aaaac
0aaaad

#400000
b10110100011101111111000010111 aaaaa
1aaaac

#401000
0aaaac

#402000
b1110001100101111010011000 aaaaa
1aaaac

#403000
0aaaac

#404000
b1001100111110111000110100110010 aaaab
1aaaad

#405000
b1100111010001110000110100111 aaaaa
1aaaac
0aaaad

#406000
b1110111011101010111100101111100 aaaab
0aaaac
1aaaad

#407000
0aaaad

#410000
b1111011100110110111010000111100 aaaab
1aaaad

#411000
b11000011010010010100011010110 aaaaa
1aaaac
0aaaad

#412000
0aaaac

#413000
b1011111101100101001100000010110 aaaab
1aaaad

#414000
b101101100111011111010101111101 aaaaa
1aaaac
0aaaad

#415000
b1111101010000101111101001101 aaaab
0aaaac
1aaaad

#416000
0aaaad

#417000
b11001101110001010000010001110 aaaaa
b1011011111111010100001000010000 aaaab
1aaaac
1aaaad

#418000
0aaaac
0aaaad

#419000
b101001111011110101001100101101 aaaaa
b10110100011101111111000010111 aaaab
1aaaac
1aaaad

#420000
0aaaac
0aaaad

#421000
b101011101101011011000111000110 aaaaa
1aaaac

#422000
b1110001100101111010011000 aaaab
0aaaac
1aaaad

#423000
b1011001011011110110110110001010 aaaaa
1aaaac
0aaaad

#424000
b1100111010001110000110100111 aaaab
0aaaac
1aaaad

#425000
b101000000011100110100010010111 aaaaa
1aaaac
0aaaad

#426000
b11000011010010010100011010110 aaaab
0aaaac
1aaaad

#427000
0aaaad

#428000
b11000001100110011110010001001 aaaaa
b101101100111011111010101111101 aaaab
1aaaac
1aaaad

#429000
0aaaac
0aaaad

#432000
b11001101110001010000010001110 aaaab
1aaaad

#433000
0aaaad

#434000
b1111001000001100011001010001011 aaaaa
1aaaac

#435000
b101001111011110101001100101101 aaaab
0aaaac
1aaaad

#436000
0aaaad

#437000
b101011101101011011000111000110 aaaab
1aaaad

#438000
0aaaad

#439000
b111100111110010011000010010010 aaaaa
b1011001011011110110110110001010 aaaab
1aaaac
1aaaad

#440000
0aaaac
0aaaad

#441000
b1000011011001010001011101001011 aaaaa
b101000000011100110100010010111 aaaab
1aaaac
1aaaad

#442000
0aaaac
0aaaad

#443000
b11100110101001000010011010101 aaaaa
1aaaac

#444000
b11000001100110011110010001001 aaaab
0aaaac
1aaaad

#445000
b10001000011001101100110011 aaaaa
1aaaac
0aaaad

#446000
b1111001000001100011001010001011 aaaab
0aaaac
1aaaad

#447000
0aaaad

#448000
b111100111110010011000010010010 aaaab
1aaaad

#449000
0aaaad

#450000
b1000011011001010001011101001011 aaaab
1aaaad

#451000
b111000101111110101001111100101 aaaaa
1aaaac
0aaaad

#452000
0aaaac

#453000
b101010100111000011010011100010 aaaaa
1aaaac

#454000
b11100110101001000010011010101 aaaab
0aaaac
1aaaad

#455000
0aaaad

#456000
b10000100100001101010000001 aaaaa
b10001000011001101100110011 aaaab
1aaaac
1aaaad

#457000
0aaaac
0aaaad

#458000
b1001100111001011100101001010011 aaaaa
1aaaac

#459000
b111000101111110101001111100101 aaaab
0aaaac
1aaaad

#460000
b1101100100010110100010001100110 aaaaa
1aaaac
0aaaad

#461000
0aaaac

#463000
b1110001111001010110001000011110 aaaaa
b101010100111000011010011100010 aaaab
1aaaac
1aaaad

#464000
0aaaac
0aaaad

#465000
b1101001001000010101110111111011 aaaaa
b10000100100001101010000001 aaaab
1aaaac
1aaaad

#466000
0aaaac
0aaaad

#467000
b101100000001101101110011110011 aaaaa
1aaaac

#468000
0aaaac

#471000
b1101000111110101000110100001101 aaaaa
b1001100111001011100101001010011 aaaab
1aaaac
1aaaad

#472000
0aaaac
0aaaad

#475000
b101100011011111010100111011 aaaaa
1aaaac

#476000
0aaaac

#477000
b1001110001111010010011010101011 aaaaa
1aaaac

#478000
b1101100100010110100010001100110 aaaab
0aaaac
1aaaad

#479000
b10101010000101001000111110110 aaaaa
1aaaac
0aaaad

#480000
0aaaac

#481000
b1100011100001010100100010011110 aaaaa
1aaaac

#482000
b1110001111001010110001000011110 aaaab
0aaaac
1aaaad

#483000
b1011111001100100111001011011011 aaaaa
1aaaac
0aaaad

#484000
b1101001001000010101110111111011 aaaab
0aaaac
1aaaad

#485000
0aaaad

#486000
b1111001001001001100101000001010 aaaaa
1aaaac

#487000
0aaaac

#488000
b101100000001101101110011110011 aaaab
1aaaad

#489000
0aaaad

#490000
b100011011110111011110010100000 aaaaa
1aaaac

#491000
b1101000111110101000110100001101 aaaab
0aaaac
1aaaad

#492000
b1100011000000000111001000111 aaaaa
1aaaac
0aaaad

#493000
b101100011011111010100111011 aaaab
0aaaac
1aaaad

#494000
b101011101101111001001010011011 aaaaa
1aaaac
0aaaad

#495000
b1001110001111010010011010101011 aaaab
0aaaac
1aaaad

#496000
0aaaad

#497000
b10101010000101001000111110110 aaaab
1aaaad

#498000
0aaaad

#499000
b10000101000110000110110011100 aaaaa
1aaaac

#500000
0aaaac

#501000
b1100011100001010100100010011110 aaaab
1aaaad

#502000
0aaaad

#503000
b1001010100011011011010110011100 aaaaa
1aaaac

#504000
b1011111001100100111001011011011 aaaab
0aaaac
1aaaad

#505000
b100111111110101101111011111010 aaaaa
1aaaac
0aaaad

#506000
b1111001001001001100101000001010 aaaab
0aaaac
1aaaad

#507000
b1111101000001000010110110000 aaaaa
1aaaac
0aaaad

#508000
0aaaac

#509000
b110011000111000100001001010000 aaaaa
1aaaac

#510000
0aaaac

#513000
b10000001010000000100111100010 aaaaa
1aaaac

#514000
0aaaac

#515000
b1100100100110010110111000010011 aaaaa
b100011011110111011110010100000 aaaab
1aaaac
1aaaad

#516000
0aaaac
0aaaad

#517000
b1101111000000000101001010011010 aaaaa
1aaaac
1aaaae

#518000
0aaaac

#519000
b1100011000000000111001000111 aaaab
1aaaad
0aaaae

#520000
0aaaad

#521000
b1110000001001110011011001110 aaaaa
1aaaac
1aaaae

#522000
b101011101101111001001010011011 aaaab
0aaaac
1aaaad
0aaaae

#523000
b1011001101001001011101001110001 aaaaa
1aaaac
0aaaad
1aaaae

#524000
b10000101000110000110110011100 aaaab
0aaaac
1aaaad
0aaaae

#525000
0aaaad

#526000
b1001001111100010101110001101011 aaaaa
b1001010100011011011010110011100 aaaab
1aaaac
1aaaad

#527000
0aaaac
0aaaad

#528000
b100111111110101101111011111010 aaaab
1aaaad

#529000
0aaaad

#531000
b110001100100111100100011111001 aaaaa
b1111101000001000010110110000 aaaab
1aaaac
1aaaad

#532000
0aaaac
0aaaad

#533000
b1101100101101001110111010011100 aaaaa
b110011000111000100001001010000 aaaab
1aaaac
1aaaad

#534000
0aaaac
0aaaad

#535000
b1010001010011100101110010110000 aaaaa
b10000001010000000100111100010 aaaab
1aaaac
1aaaad

#536000
0aaaac
0aaaad

#537000
b1000000010011101010111101001010 aaaaa
b1100100100110010110111000010011 aaaab
1aaaac
1aaaad

#538000
0aaaac
0aaaad

#539000
b11110001011110000001111100 aaaaa
b1101111000000000101001010011010 aaaab
1aaaac
1aaaad

#540000
0aaaac
0aaaad

#541000
b10001110010101100011101001010 aaaaa
1aaaac

#542000
0aaaac

#543000
b1101100000100010110100001011010 aaaaa
b1110000001001110011011001110 aaaab
1aaaac
1aaaad

#544000
0aaaac
0aaaad

#545000
b1011001101001001011101001110001 aaaab
1aaaad

#546000
0aaaad

#547000
b1001001111100010101110001101011 aaaab
1aaaad

#548000
0aaaad

#551000
b1111001001101110101001111011110 aaaaa
1aaaac

#552000
b110001100100111100100011111001 aaaab
0aaaac
1aaaad

#553000
b1110111110110100100101001010111 aaaaa
1aaaac
0aaaad

#554000
0aaaac

#555000
b1101100101101001110111010011100 aaaab
1aaaad

#556000
b1101111110011000000011000100100 aaaaa
1aaaac
0aaaad

#557000
0aaaac

#558000
b1010000100011101101100010010111 aaaaa
b1010001010011100101110010110000 aaaab
1aaaac
1aaaad

#559000
0aaaac
0aaaad

#560000
b1100010111110111000011010000000 aaaaa
1aaaac

#561000
b1000000010011101010111101001010 aaaab
0aaaac
1aaaad

#562000
b1100001110000110000001101100001 aaaaa
1aaaac
0aaaad

#563000
b11110001011110000001111100 aaaab
0aaaac
1aaaad

#564000
0aaaad

#565000
b10001110010101100011101001010 aaaab
1aaaad

#566000
0aaaad

#569000
b1100111000110100010010110101 aaaaa
1aaaac

#570000
b1101100000100010110100001011010 aaaab
0aaaac
1aaaad

#571000
b1101010101011001010001011110 aaaaa
1aaaac
0aaaad

#572000
b1111001001101110101001111011110 aaaab
0aaaac
1aaaad

#573000
b110011000010110001001100110011 aaaaa
1aaaac
0aaaad

#574000
0aaaac

#576000
b1000101110111110101100011101 aaaaa
b1110111110110100100101001010111 aaaab
1aaaac
1aaaad

#577000
0aaaac
0aaaad

#578000
b1101111110011000000011000100100 aaaab
1aaaad

#579000
b111010111101101010001000100000 aaaaa
1aaaac
0aaaad

#580000
0aaaac

#582000
b1010000100011101101100010010111 aaaab
1aaaad

#583000
0aaaad

#584000
b1100010111110111000011010000000 aaaab
1aaaad

#585000
0aaaad

#587000
b10001000100101101101110110110 aaaaa
1aaaac

#588000
0aaaac

#589000
b1100001110000110000001101100001 aaaab
1aaaad

#590000
0aaaad

#591000
b1010011010000110100011110101000 aaaaa
b1100111000110100010010110101 aaaab
1aaaac
1aaaad

#592000
0aaaac
0aaaad

#594000
b1100011001101010001011000000100 aaaaa
1aaaac

#595000
b1101010101011001010001011110 aaaab
0aaaac
1aaaad

#596000
0aaaad

#597000
b1000100100111110110011011111110 aaaaa
b110011000010110001001100110011 aaaab
1aaaac
1aaaad

#598000
0aaaac
0aaaad

#599000
b1000101110111110101100011101 aaaab
1aaaad

#600000
b1011011000111111011110000101101 aaaaa
1aaaac
0aaaad

#601000
0aaaac

#602000
b111010111101101010001000100000 aaaab
1aaaad

#603000
0aaaad

#604000
b101001011100111111100010001111 aaaaa
1aaaac

#605000
b10001000100101101101110110110 aaaab
0aaaac
1aaaad

#606000
0aaaad

#607000
b1011011110010011010100000100111 aaaaa
1aaaac

#608000
b1010011010000110100011110101000 aaaab
0aaaac
1aaaad

#609000
0aaaad

#611000
b111000110110000010111001110001 aaaaa
1aaaac

#612000
b1100011001101010001011000000100 aaaab
0aaaac
1aaaad

#613000
0aaaad

